0x2, 0x7, 0x1a,0xca,0x39,0x12,0x9, 0x19,0xda,0x39,0x32,0x2, 0x0, 0x3, 0x6d,0x22,
0x80,0x13,0x75,0xb5,0x0, 0xa9,0x36,0xb3,0xfc,0xa9,0xc6,0xb3,0xe5,0xb5,0x7a,0xb, 
0xb0,0xb, 0x14,0xb, 0x24,0xbd,0x32,0x38,0xe9,0x22,0xff,0x2, 0x7, 0x95,0x12,0x8, 
0x65,0x12,0x8, 0xd8,0xd2,0xaf,0xd2,0x3, 0xe4,0x12,0x8, 0x9, 0x12,0x3, 0x92,0x2, 
0x8, 0xe9,0xff,0x2, 0x9, 0x22,0x7c,0x6b,0xc2,0x2, 0xe5,0x8, 0x14,0x78,0x3, 0x2, 
0x1, 0xb5,0x1b,0xb1,0x78,0x3, 0x2, 0x1, 0x52,0x1b,0xb1,0x78,0x3, 0x2, 0x1, 0xb5,
0x1b,0xb1,0x78,0x3, 0x2, 0x1, 0x91,0x14,0x78,0x3, 0x2, 0x1, 0xab,0x14,0x78,0x3, 
0x2, 0x1, 0xb1,0x24,0xa8,0x78,0x3, 0x2, 0x2, 0x6, 0x24,0xfd,0x68,0x2d,0x14,0x78,
0x3, 0x2, 0x1, 0xb8,0x14,0x78,0x3, 0x2, 0x1, 0xb5,0x24,0xd6,0x68,0x20,0x24,0xe6,
0x68,0x19,0x24,0xeb,0x68,0x35,0x24,0xf3,0x78,0x3, 0x2, 0x1, 0xb5,0x24,0xec,0x78,
0x3, 0x2, 0x2, 0x11,0x24,0x8b,0x68,0x3, 0x2, 0x2, 0x14,0x2, 0x2, 0xd, 0xbe,0x60,
0x4, 0x50,0xc, 0x75,0x28,0x0, 0x7c,0x16,0x2e,0x10,0x9, 0x7c,0xb7,0xa5,0xf7,0xa5,
0xbe,0x0, 0x2, 0x80,0x3, 0x2, 0x2, 0x14,0xd2,0x2, 0x22,0x7c,0xb6,0x24,0x0, 0x78,
0x3, 0x2, 0x2, 0x14,0x14,0x78,0x3, 0x2, 0x2, 0x14,0x1b,0xb1,0x68,0x1b,0x14,0x68,
0x1b,0x14,0x68,0x1b,0x24,0x3, 0x78,0x30,0x30,0x1, 0x7, 0x7e,0x8, 0x0, 0x2e,0x2, 
0x1, 0x71,0x7e,0x8, 0x1, 0x38,0x2, 0x1, 0x71,0x2, 0x1, 0xd5,0x2, 0x1, 0xe3,0xa, 
0x27,0x7e,0xd, 0x1b,0xb, 0x15,0xb, 0xa, 0x30,0x2d,0x32,0x1b,0xa, 0x30,0x6d,0x33,
0x7e,0xd, 0x1b,0x79,0x30,0x0, 0x4, 0x22,0x7c,0xb7,0x62,0x28,0x7e,0x2d,0x1b,0xb, 
0x56,0xb, 0x2a,0x20,0x7d,0x12,0xb, 0x14,0x1b,0x2a,0x10,0x7e,0xd, 0x1b,0x2d,0x12,
0x39,0x70,0x0, 0x6, 0x7e,0xd, 0x1b,0x69,0x50,0x0, 0x2, 0x69,0x20,0x0, 0x4, 0xbd,
0x25,0x50,0x3, 0x2, 0x2, 0x14,0xb2,0x1, 0x7a,0xd, 0x16,0x7e,0x34,0x0, 0x2, 0x2, 
0x2, 0x2, 0x7c,0xb6,0x14,0x68,0xd, 0x14,0x68,0xa, 0x14,0x68,0x19,0x24,0x3, 0x68,
0x3, 0x2, 0x2, 0x14,0x30,0x1, 0x6, 0x7e,0x8, 0x0, 0x2e,0x80,0x4, 0x7e,0x8, 0x1, 
0x38,0x7a,0xd, 0x1b,0x80,0x54,0xa, 0x27,0x7e,0xd, 0x1b,0xb, 0xa, 0x30,0x2d,0x32,
0x1b,0xa, 0x30,0x7e,0x1d,0x1b,0x7a,0x1d,0x16,0xd2,0x2, 0x7e,0x34,0x0, 0x1, 0x80,
0x71,0x75,0xe6,0x0, 0xe4,0x7e,0x34,0xd7,0xfc,0x7e,0x24,0x0, 0xff,0x7a,0x1b,0xb0,
0x7e,0x34,0xd7,0xfd,0x7a,0x1b,0xb0,0x75,0xe9,0xff,0x22,0x75,0xe6,0x0, 0xd2,0x9f,
0x22,0x7a,0x71,0x15,0x22,0xd2,0x2, 0x22,0x2e,0x60,0xfd,0x68,0x18,0x1b,0x60,0x68,
0x22,0x1b,0x60,0x68,0x2a,0x2e,0x60,0x3, 0x78,0x4a,0x7c,0x27,0x6c,0x33,0x7e,0x1d,
0x1b,0x1b,0x1a,0x10,0x22,0xa, 0x27,0x7e,0xd, 0x1b,0xb, 0xa, 0x30,0x2d,0x32,0x1b,
0xa, 0x30,0x22,0x7c,0x67,0x6c,0x77,0x7e,0xd, 0x1b,0x79,0x30,0x0, 0x2, 0x22,0xa, 
0x27,0x7e,0xd, 0x1b,0xb, 0x15,0xb, 0xa, 0x30,0x2d,0x32,0x1b,0xa, 0x30,0x7e,0x34,
0x0, 0x3, 0x7a,0x35,0x13,0x22,0x7e,0x34,0x0, 0x4, 0x7a,0x35,0x13,0x75,0x28,0x0, 
0x22,0x7a,0x71,0x29,0x22,0xca,0x3b,0xca,0x29,0x7f,0x30,0xb, 0xfe,0xa, 0x26,0x7a,
0xfb,0x50,0x39,0x7f,0xff,0xff,0x74,0x1, 0x69,0x3f,0xff,0xfb,0x1e,0x34,0x1b,0x34,
0x4e,0x60,0x80,0x12,0x6, 0xcf,0x74,0x2, 0x12,0x6, 0x18,0x5e,0x70,0xfe,0x5e,0x70,
0xfd,0x5e,0x70,0xf7,0x12,0x6, 0xcf,0x74,0x1, 0x12,0x7, 0xd1,0xa9,0xc2,0xb4,0xa9,
0xc6,0xb3,0x75,0xb5,0x2, 0xa9,0x36,0xb3,0xfc,0xa9,0xc6,0xb3,0x75,0xb5,0x0, 0xa9,
0x36,0xb3,0xfc,0xa9,0xc6,0xb3,0x7e,0xfb,0xb0,0xf5,0xb5,0xa9,0x36,0xb3,0xfc,0xa9,
0xc6,0xb3,0x29,0xbf,0xff,0xff,0xf5,0xb5,0xa9,0x36,0xb3,0xfc,0xa9,0xc6,0xb3,0x6d,
0x33,0x2, 0x2, 0xb6,0x69,0x3f,0xff,0xfd,0x2d,0x37,0x7d,0x26,0x7e,0x1b,0xb0,0xf5,
0xb5,0xa9,0x36,0xb3,0xfc,0xa9,0xc6,0xb3,0x69,0x3f,0xff,0xfd,0x5e,0x34,0x0, 0x1, 
0xbe,0x34,0x0, 0x1, 0x68,0x3, 0x2, 0x2, 0xb0,0x7e,0x34,0x0, 0x50,0x12,0x8, 0x8a,
0x69,0x3f,0xff,0xfd,0xb, 0x34,0x79,0x3f,0xff,0xfd,0x69,0x2f,0xff,0xfb,0x69,0x3f,
0xff,0xfd,0xbd,0x32,0x40,0xbe,0xa9,0xd2,0xb4,0x7e,0x34,0x0, 0x5, 0x12,0x8, 0x8a,
0xe4,0x12,0x7, 0xd1,0xd3,0x92,0xd5,0x9e,0xf8,0x0, 0x6, 0xa2,0xd5,0xda,0x3b,0x22,
0x12,0x0, 0x2e,0x7e,0x35,0x13,0x1b,0x34,0x68,0x22,0x1b,0x35,0x68,0x48,0x1b,0x34,
0x68,0x5c,0xb, 0x35,0x78,0xed,0x6d,0x33,0x7a,0x35,0x13,0x7e,0xd, 0x16,0x69,0x20,
0x0, 0x2, 0xb, 0xa, 0x30,0x2e,0x14,0x0, 0x6, 0x2, 0x3, 0x8c,0x6d,0x33,0x7a,0x35,
0x13,0x7e,0x34,0x1, 0x0, 0xca,0x39,0x7e,0xd, 0x16,0xb, 0xa, 0x30,0x6d,0x22,0x2e,
0x14,0x0, 0x6, 0x12,0x8, 0xc5,0x1b,0xfd,0x30,0x0, 0xb8,0x7e,0x1d,0x16,0x29,0xb1,
0x0, 0x6, 0xf5,0x91,0x80,0xad,0x6d,0x33,0x7a,0x35,0x13,0x7e,0xd, 0x16,0xb, 0xa, 
0x30,0x69,0x20,0x0, 0x2, 0x7e,0x8, 0x0, 0x28,0x12,0x4, 0x20,0x80,0x95,0x6d,0x33,
0x7a,0x35,0x13,0xe5,0x15,0xb4,0xa, 0x6, 0xe4,0x12,0x5, 0x79,0x80,0x85,0x7e,0x34,
0x0, 0x78,0xca,0x39,0x7e,0x8, 0x2, 0xc2,0x7e,0x18,0xd7,0x80,0x12,0x8, 0xc5,0x1b,
0xfd,0x6c,0xff,0xe4,0x7c,0x7f,0x12,0x4, 0xce,0xb, 0xf0,0xbe,0xf0,0x36,0x78,0xf3,
0x7e,0x8, 0x2, 0xc2,0x7e,0x24,0x0, 0x78,0x7e,0x34,0xd7,0x80,0x12,0x2, 0x15,0x2, 
0x2, 0xe3,0xca,0xf8,0x7e,0xf0,0x70,0x75,0x91,0x0, 0xc2,0x90,0xc2,0x91,0x20,0x87,
0x9, 0x75,0xfd,0x11,0x7e,0xf1,0xfe,0x75,0xfd,0xff,0x30,0x3, 0x3d,0x7e,0x34,0x0, 
0x4, 0xca,0x39,0x7e,0x8, 0x0, 0x21,0x7e,0x18,0xd7,0x80,0x12,0x8, 0xc5,0x1b,0xfd,
0xe5,0x21,0x60,0x13,0xe5,0x22,0xa, 0x2b,0xe5,0x21,0xa, 0x3b,0x2d,0x32,0xbe,0x34,
0x0, 0xff,0x78,0x3, 0x7e,0xf1,0x21,0x7e,0x34,0x0, 0x1, 0xca,0x39,0x7e,0x8, 0x0, 
0x2a,0x7e,0x18,0xd7,0xc0,0x12,0x8, 0xc5,0x1b,0xfd,0x5e,0xf0,0xfe,0x7a,0xf1,0x92,
0xd2,0xe8,0xc2,0xc0,0xa9,0xd5,0xb7,0xd2,0xbd,0xd2,0xad,0xda,0xf8,0x22,0xff,0xff,
0x56,0x30,0x2e,0x32,0x5f,0x41,0x70,0x72,0x20,0x32,0x33,0x20,0x32,0x30,0x31,0x34,
0x46,0x54,0x53,0x35,0x34,0x32,0x32,0x5f,0x46,0x54,0x35,0x30,0x30,0x33,0x0, 0x0, 
0xca,0x3b,0x7f,0x30,0x7a,0x25,0x23,0x7a,0x35,0x21,0x7e,0x35,0x23,0xbe,0x34,0x0, 
0x0, 0x38,0x53,0x7e,0x34,0xff,0xff,0x7a,0x35,0x23,0x75,0x25,0x1, 0x80,0x47,0x7e,
0x34,0x0, 0x80,0xca,0x39,0x7e,0x35,0x21,0x6d,0x22,0x7e,0x8, 0x2, 0x42,0x12,0x8, 
0xc5,0x1b,0xfd,0x7e,0x35,0x23,0x9e,0x34,0x0, 0x80,0x7a,0x35,0x23,0x7e,0x35,0x21,
0x2e,0x34,0x0, 0x80,0x7a,0x35,0x21,0x6d,0x33,0x7a,0x35,0x26,0x7e,0x35,0x26,0x9, 
0x43,0x2, 0x42,0x7e,0x3b,0x50,0x6c,0x54,0x7a,0x3b,0x50,0xb, 0x34,0x7a,0x35,0x26,
0xbe,0x34,0x0, 0x80,0x78,0xe6,0x7e,0x35,0x23,0xbe,0x34,0x0, 0x80,0x38,0xb0,0xe5,
0x25,0x60,0x5, 0xb, 0x34,0x7a,0x35,0x23,0x7e,0x35,0x23,0xca,0x39,0x7e,0x35,0x21,
0x6d,0x22,0x7e,0x8, 0x2, 0x42,0x12,0x8, 0xc5,0x1b,0xfd,0x6d,0x33,0x80,0x11,0x7e,
0x35,0x26,0x9, 0x43,0x2, 0x42,0x7e,0x3b,0x50,0x6c,0x54,0x7a,0x3b,0x50,0xb, 0x34,
0x7a,0x35,0x26,0x7e,0x35,0x23,0xbe,0x35,0x26,0x38,0xe4,0xda,0x3b,0x22,0xca,0x3b,
0x7c,0xc7,0x7c,0xdb,0x74,0x1, 0x12,0x7, 0xd1,0x74,0x1, 0x6d,0x33,0x12,0x6, 0xcf,
0xe4,0x12,0x6, 0x18,0x7d,0x73,0x5e,0x74,0x80,0x0, 0x7c,0x6c,0x6c,0x77,0x3e,0x34,
0x4d,0x73,0x7d,0x37,0x12,0x6, 0xcf,0x6d,0x77,0xbe,0xd0,0x1, 0x68,0x3, 0x2, 0x5, 
0x7, 0x4e,0xf0,0x8, 0x2, 0x5, 0xa, 0x5e,0xf0,0xf7,0x74,0x4, 0x7d,0x37,0x12,0x6, 
0xcf,0x4e,0xf0,0x10,0x4e,0xf0,0x40,0x7d,0x37,0x12,0x6, 0xcf,0x7e,0x34,0x0, 0x19,
0x12,0x8, 0x8a,0x4e,0xf0,0x1, 0x74,0x4, 0x7d,0x37,0x12,0x6, 0xcf,0x7e,0x34,0xa2,
0x1c,0x12,0x8, 0x8a,0x5e,0xf0,0xbf,0x74,0x4, 0x7d,0x37,0x12,0x6, 0xcf,0x7e,0x34,
0x0, 0x19,0x12,0x8, 0x8a,0x5e,0xf0,0xfe,0x74,0x4, 0x7d,0x37,0x12,0x6, 0xcf,0x7e,
0x34,0x0, 0x19,0x12,0x8, 0x8a,0x5e,0xf0,0xef,0x74,0x4, 0x7d,0x37,0x12,0x6, 0xcf,
0x7e,0x34,0x0, 0x5, 0x12,0x8, 0x8a,0xe4,0x12,0x7, 0xd1,0x7e,0x34,0xff,0xf7,0x7d,
0x73,0x74,0x4, 0x12,0x6, 0xcf,0xda,0x3b,0x22,0xca,0xd8,0xca,0x79,0x7c,0xdb,0x74,
0x1, 0x12,0x7, 0xd1,0xe4,0x6d,0x33,0x12,0x6, 0xcf,0x74,0x1, 0x6d,0x33,0x12,0x6, 
0xcf,0x6d,0x77,0xbe,0xd0,0x1, 0x68,0x3, 0x2, 0x5, 0xa1,0x4e,0xf0,0x8, 0x2, 0x5, 
0xa4,0x5e,0xf0,0xf7,0x74,0x4, 0x7d,0x37,0x12,0x6, 0xcf,0x4e,0xf0,0x10,0x4e,0xf0,
0x40,0x4e,0xf0,0x4, 0x7d,0x37,0x12,0x6, 0xcf,0x7e,0x34,0x0, 0x19,0x12,0x8, 0x8a,
0x4e,0xf0,0x1, 0x74,0x4, 0x7d,0x37,0x12,0x6, 0xcf,0x7e,0x34,0xa2,0x1c,0x12,0x8, 
0x8a,0x5e,0xf0,0xbf,0x74,0x4, 0x7d,0x37,0x12,0x6, 0xcf,0x7e,0x34,0x0, 0x19,0x12,
0x8, 0x8a,0x5e,0xf0,0xfe,0x74,0x4, 0x7d,0x37,0x12,0x6, 0xcf,0x7e,0x34,0x0, 0x19,
0x12,0x8, 0x8a,0x5e,0xf0,0xef,0x74,0x4, 0x7d,0x37,0x12,0x6, 0xcf,0x7e,0x34,0x0, 
0x1, 0x12,0x8, 0x8a,0xe4,0x12,0x7, 0xd1,0x7e,0x34,0xff,0xf7,0x7d,0x73,0x74,0x4, 
0x12,0x6, 0xcf,0xda,0x79,0xda,0xd8,0x22,0xa9,0xc2,0xb4,0xa9,0xc6,0xb3,0x75,0xb5,
0x5, 0xa9,0x36,0xb3,0xfc,0xa9,0xc6,0xb3,0x75,0xb5,0x0, 0xa9,0x36,0xb3,0xfc,0xa9,
0xc6,0xb3,0x75,0xb5,0x0, 0xa9,0x36,0xb3,0xfc,0xa9,0xc6,0xb3,0xf5,0xb5,0xa9,0x36,
0xb3,0xfc,0xa9,0xc6,0xb3,0x75,0xb5,0x0, 0xa9,0x36,0xb3,0xfc,0xa9,0xc6,0xb3,0x75,
0xb5,0x0, 0xa9,0x36,0xb3,0xfc,0xa9,0xc6,0xb3,0x7e,0x71,0xb5,0x75,0xb5,0x0, 0xa9,
0x36,0xb3,0xfc,0xa9,0xc6,0xb3,0x7e,0xa1,0xb5,0xa9,0xd2,0xb4,0x7c,0x47,0x6c,0x55,
0xa, 0x3a,0x4d,0x32,0x22,0x7c,0x7b,0x7e,0xa0,0xef,0xe5,0x8, 0x24,0xfd,0x68,0x37,
0x1b,0xb1,0x68,0x22,0x24,0x9f,0x68,0x41,0x24,0x9a,0x68,0x3d,0x1b,0xb2,0x68,0x34,
0x24,0x40,0x78,0x38,0xa5,0xbf,0x0, 0x5, 0x7e,0xa0,0x54,0x80,0x2f,0xa5,0xbf,0x1, 
0x2b,0x7e,0xa0,0x2b,0x80,0x26,0xa5,0xbf,0x0, 0x4, 0x6c,0xaa,0x80,0x1e,0xa5,0xbf,
0x1, 0x1a,0x7e,0xa0,0x2, 0x80,0x15,0xa, 0x17,0x7e,0x1d,0x1b,0x2d,0x31,0x29,0xa1,
0x0, 0x6, 0x80,0x8, 0x7e,0xa1,0x2d,0x80,0x3, 0x7e,0xa1,0x28,0x7c,0xba,0x22,0x7d,
0x23,0xa, 0x36,0x7c,0xa5,0xa9,0xc2,0xb4,0xa9,0xc6,0xb3,0x75,0xb5,0x1, 0xa9,0x36,
0xb3,0xfc,0xa9,0xc6,0xb3,0x75,0xb5,0x0, 0xa9,0x36,0xb3,0xfc,0xa9,0xc6,0xb3,0x75,
0xb5,0x0, 0xa9,0x36,0xb3,0xfc,0xa9,0xc6,0xb3,0xf5,0xb5,0xa9,0x36,0xb3,0xfc,0xa9,
0xc6,0xb3,0x7a,0x71,0xb5,0xa9,0x36,0xb3,0xfc,0xa9,0xc6,0xb3,0x7a,0xa1,0xb5,0xa9,
0x36,0xb3,0xfc,0xa9,0xc6,0xb3,0xa9,0xd2,0xb4,0x22,0x75,0x84,0x1, 0x7e,0x44,0x1f,
0xff,0xe4,0x7a,0x49,0xb0,0x1b,0x44,0x78,0xf9,0x7e,0xf8,0x3, 0x39,0xd2,0x3, 0xc2,
0x4, 0x75,0x28,0x0, 0x75,0x29,0x0, 0x75,0x2a,0xff,0x75,0x2b,0x0, 0x75,0x2c,0x0, 
0x75,0x2d,0x0, 0xd2,0x0, 0xc2,0x2, 0x75,0x8, 0x0, 0x75,0x13,0x0, 0x75,0x14,0x0, 
0x75,0x15,0x0, 0x75,0x1a,0x0, 0x2, 0x2, 0xe0,0x2e,0xf8,0x0, 0x3, 0x7d,0x12,0x7a,
0xfb,0x30,0x7c,0x36,0x7c,0x25,0xa, 0x4, 0x39,0x3f,0xff,0xff,0x39,0x7f,0xff,0xfe,
0xa9,0xc2,0xb4,0x74,0xb, 0x12,0x9, 0x4, 0x7e,0xfb,0xb0,0x12,0x9, 0x4, 0x29,0xbf,
0xff,0xff,0x12,0x9, 0x4, 0x29,0xbf,0xff,0xfe,0x12,0x9, 0x4, 0xe4,0x12,0x9, 0x4, 
0x9e,0xf8,0x0, 0x3, 0x22,0xca,0x2b,0xca,0x1b,0xca,0xb, 0xd2,0x0, 0x30,0x90,0x1c,
0xc2,0x90,0x7e,0x71,0x91,0xe5,0x1a,0x70,0x3, 0x7a,0x71,0x8, 0xe5,0x1a,0x12,0x0, 
0x46,0x5, 0x1a,0x30,0x2, 0x6, 0xe4,0x12,0x6, 0x75,0xf5,0x91,0x30,0x91,0xb, 0xc2,
0x91,0x5, 0x1a,0xe5,0x1a,0x12,0x6, 0x75,0xf5,0x91,0xda,0xb, 0xda,0x1b,0xda,0x2b,
0x32,0xbe,0xb0,0x0, 0x28,0x3, 0x2, 0x8, 0x39,0x74,0x1, 0x7e,0x34,0xdf,0xff,0x12,
0x6, 0xcf,0x74,0x6, 0x12,0x6, 0x18,0x7d,0x43,0x6c,0x99,0x7d,0x34,0x12,0x6, 0xcf,
0x7d,0x34,0x12,0x6, 0xcf,0x7d,0x34,0x12,0x6, 0xcf,0x74,0x2, 0x12,0x6, 0x18,0x7d,
0x43,0x4e,0x90,0x1, 0x7d,0x34,0x2, 0x6, 0xcf,0x7c,0x3b,0x6c,0x22,0x7c,0xb2,0x12,
0x6, 0x18,0x74,0x2, 0xac,0xb2,0x59,0x35,0x2, 0x42,0xb, 0x20,0xa5,0xba,0x1c,0xed,
0x74,0x2, 0x12,0x6, 0x18,0xa5,0xbb,0x0, 0x5, 0x5e,0x70,0xdf,0x80,0x3, 0x4e,0x70,
0x20,0x74,0x2, 0x12,0x6, 0xcf,0x2, 0x6, 0x18,0x74,0x6, 0x12,0x6, 0x18,0x7d,0x43,
0x6c,0x99,0x7e,0x90,0xa5,0x7d,0x34,0x12,0x6, 0xcf,0x6c,0x99,0x7e,0x90,0xf, 0x7d,
0x34,0x12,0x6, 0xcf,0x6c,0x99,0x7e,0x90,0x6a,0x7d,0x34,0x12,0x6, 0xcf,0x7e,0x34,
0x0, 0x5, 0x2, 0x8, 0x8a,0xd2,0xcf,0x53,0xcc,0xf8,0xe5,0xcc,0xf5,0xcc,0xa9,0xd5,
0xca,0x75,0xeb,0x23,0x75,0xed,0x9f,0x75,0xac,0x40,0x75,0xad,0x30,0x75,0xec,0xff,
0x75,0xee,0xff,0xa9,0xc1,0xea,0xa9,0xc5,0x94,0x22,0x80,0x14,0x0, 0x0, 0x0, 0x0, 
0x0, 0x0, 0x0, 0x0, 0x0, 0x0, 0x0, 0x0, 0x0, 0x0, 0x0, 0x0, 0x0, 0x0, 0x0, 0x0, 
0x7d,0x23,0x1b,0x34,0x4d,0x22,0x78,0xe4,0x22,0x6d,0x22,0x80,0x12,0x7f,0x20,0xb, 
0x14,0x7e,0x2b,0xb0,0xf5,0xb5,0xa9,0x36,0xb3,0xfc,0xa9,0xc6,0xb3,0xb, 0x24,0xbd,
0x32,0x38,0xea,0xd3,0x22,0x7f,0x70,0x12,0x7, 0x59,0x7f,0x7, 0x69,0x3f,0xff,0xfd,
0x12,0x0, 0xe, 0xa9,0xd2,0xb4,0xd3,0x22,0xd2,0xc8,0x43,0xed,0xf, 0xc2,0xea,0x75,
0xb3,0x13,0xa9,0xd1,0xb4,0xa9,0xc0,0xb4,0x22,0xc2,0x8c,0x43,0x89,0x2, 0x75,0x8c,
0x1, 0x75,0x8a,0x0, 0xd2,0xa9,0x22,0x75,0xb5,0x0, 0xa9,0x36,0xb3,0xfc,0xa9,0xc6,
0xb3,0xe5,0xb5,0x22,0xf5,0xb5,0xa9,0x36,0xb3,0xfc,0xa9,0xc6,0xb3,0xd3,0x22,0xc2,
0x8c,0x6d,0x33,0x7a,0x35,0x2b,0xd2,0x8c,0x22,0x7e,0x35,0x2b,0xb, 0x34,0x7a,0x35,
0x2b,0x22,0xa9,0xc0,0x93,0x75,0x1a,0x0, 0x32,0x2, 0x9, 0x19,0x9, 0x2c,0xf6,0xd3,
0xf1,0xe, 0xff,0xff,