0=ICC=1
1=LAN=0
2=MSR=1
3=PRN=1
4=BT=1
5=WIFI=1
6=WNET=1
7=KEY=1
8=PINPAD=0
9=SD=1
10=OTG=1
11=AUDIO=1
12=LED=1
13=PICC=1
14=MODEM=0
15=GPS=0
16=SENSOR=0
17=LCD=1
18=TP=1
19=CAMERA=1
20=SCANNER=0
21=RTC=0
22=BEEP=1
23=USBD=0
24=LOG=1
25=VIBRATE=0
26=MIC=0
27=BAT=1
28=PED=0
29=FELICA=0
30=COM=0
31=USBH=0
32=RS232A=0
33=RS232B=0
34=MEMORY=1
35=CASHBOX=1
36=GUOMI=0
37=EARSET=1
38=SPKEY=0
39=SPLCD=0
40=BASE=0
41=IDCARD=0
42=SPVERSION=1
43=APVERSION=1
44=INJECTKEY=1
45=INTERGRATION=0
46=CONFIGINFO=1
47=CAMERASCAN=0